Cortison- und Hydrocortisongehalte in tierischen Produkten
…
ohne_NA |> 
  count(bg)

# A tibble: 3,002 × 8
# Groups:   ProbenID, cortison_conc, hydrocortison_conc, tierart, matrix, datum
#   [3,002]
   ProbenID cortison_conc hydrocortison_conc tierart matrix datum         bg
   <chr>            <dbl>              <dbl> <chr>   <chr>  <date>     <dbl>
 1 E32FDE2           NA                  2   Schwein Leber  2019-07-01  0.25
 2 E32FDF2           NA                  1   Schwein Leber  2019-07-01  0.25
 3 E330DDE            0.9                0.7 Schwein Leber  2019-07-04  0.25
 4 E330DEE           NA                  3   Schwein Leber  2019-06-25  0.25
 5 E330DFE           NA                  1   Schwein Leber  2019-06-18  0.25
 6 E330E22           NA                  1   Schwein Leber  2019-06-18  0.25
 7 E330E32           NA                  2   Schwein Leber  2019-06-25  0.25
 8 E330E40           NA                  0.4 Schwein Leber  2019-07-04  0.25
 9 E330E50           NA                  2   Schwein Leber  2019-06-19  0.25
10 E330E60           NA                 NA   Schwein Leber  2019-07-04  0.25
# ℹ 2,992 more rows
# ℹ 1 more variable: n <int>

ohne_NA |> 
  count(matrix)

# A tibble: 3,002 × 7
# Groups:   ProbenID, cortison_conc, hydrocortison_conc, tierart, matrix, datum
#   [3,002]
   ProbenID cortison_conc hydrocortison_conc tierart matrix datum          n
   <chr>            <dbl>              <dbl> <chr>   <chr>  <date>     <int>
 1 E32FDE2           NA                  2   Schwein Leber  2019-07-01     1
 2 E32FDF2           NA                  1   Schwein Leber  2019-07-01     1
 3 E330DDE            0.9                0.7 Schwein Leber  2019-07-04     1
 4 E330DEE           NA                  3   Schwein Leber  2019-06-25     1
 5 E330DFE           NA                  1   Schwein Leber  2019-06-18     1
 6 E330E22           NA                  1   Schwein Leber  2019-06-18     1
 7 E330E32           NA                  2   Schwein Leber  2019-06-25     1
 8 E330E40           NA                  0.4 Schwein Leber  2019-07-04     1
 9 E330E50           NA                  2   Schwein Leber  2019-06-19     1
10 E330E60           NA                 NA   Schwein Leber  2019-07-04     1
# ℹ 2,992 more rows

ohne_NA |> 
  count(jahreszeit)

# A tibble: 3,002 × 8
# Groups:   ProbenID, cortison_conc, hydrocortison_conc, tierart, matrix, datum
#   [3,002]
   ProbenID cortison_conc hydrocortison_conc tierart matrix datum     
   <chr>            <dbl>              <dbl> <chr>   <chr>  <date>    
 1 E32FDE2           NA                  2   Schwein Leber  2019-07-01
 2 E32FDF2           NA                  1   Schwein Leber  2019-07-01
 3 E330DDE            0.9                0.7 Schwein Leber  2019-07-04
 4 E330DEE           NA                  3   Schwein Leber  2019-06-25
 5 E330DFE           NA                  1   Schwein Leber  2019-06-18
 6 E330E22           NA                  1   Schwein Leber  2019-06-18
 7 E330E32           NA                  2   Schwein Leber  2019-06-25
 8 E330E40           NA                  0.4 Schwein Leber  2019-07-04
 9 E330E50           NA                  2   Schwein Leber  2019-06-19
10 E330E60           NA                 NA   Schwein Leber  2019-07-04
# ℹ 2,992 more rows
# ℹ 2 more variables: jahreszeit <chr>, n <int>
…
niere <- filter(ohne_NA, matrix == "Niere")

muskel <- filter(ohne_NA, matrix == "Muskel")

harn <- filter(ohne_NA, matrix == "Harn")

schwein <- filter(ohne_NA, tierart == "Schwein")

rinder <- filter(ohne_NA, tierart == "Rind" | tierart == "Kuh" | tierart == "Kalb")

rinder |> 
  count(tierart)

# A tibble: 2,023 × 7
# Groups:   ProbenID, cortison_conc, hydrocortison_conc, tierart, matrix, datum
#   [2,023]
   ProbenID cortison_conc hydrocortison_conc tierart matrix datum          n
   <chr>            <dbl>              <dbl> <chr>   <chr>  <date>     <int>
 1 E331AC0             NA                  1 Rind    Blut   2019-07-11     1
 2 E331AD0             NA                 NA Rind    Blut   2019-07-11     1
 3 E331AE0             NA                 NA Rind    Blut   2019-07-11     1
 4 E331B04             NA                 NA Rind    Blut   2019-07-11     1
 5 E331B14             NA                 NA Rind    Blut   2019-07-11     1
 6 E331C4C              3                 25 Kuh     Blut   2019-07-15     1
 7 E331C5C              3                 15 Rind    Blut   2019-07-15     1
 8 E331C80              2                 13 Rind    Blut   2019-07-15     1
 9 E331C90              3                 23 Kuh     Blut   2019-07-15     1
10 E331CA0              1                  2 Kuh     Blut   2019-07-12     1
# ℹ 2,013 more rows
…
